<svg xmlns="http://www.w3.org/2000/svg" width="116" height="25" viewBox="0 0 116 25">
    <g fill="#FFC200" fill-rule="evenodd">
        <path d="M48.242 4.063L39.742 24H34.18l8.515-18.688H31.852V1.25h16.39v2.813zm5.672 4.312l-2.312-1.25c.864-1.5 1.307-2.969 1.328-4.406V0h3.843v2.547c0 .969-.278 2.002-.836 3.101-.557 1.1-1.231 2.008-2.023 2.727zm22.61 6.328c0 3.073-.69 5.443-2.07 7.11-1.381 1.666-3.326 2.5-5.837 2.5-2.531 0-4.49-.839-5.875-2.516-1.385-1.677-2.078-4.042-2.078-7.094v-4.156c0-3.073.69-5.443 2.07-7.11 1.38-1.666 3.331-2.5 5.852-2.5 2.52 0 4.474.839 5.86 2.516 1.385 1.677 2.077 4.047 2.077 7.11v4.14zm-5.266-4.828c0-1.635-.214-2.857-.64-3.664C70.19 5.404 69.512 5 68.585 5c-.906 0-1.565.375-1.977 1.125-.411.75-.632 1.885-.664 3.406v5.813c0 1.698.214 2.94.64 3.726.428.787 1.105 1.18 2.032 1.18.896 0 1.557-.383 1.985-1.148.427-.766.645-1.967.656-3.602V9.875zm24.797 4.828c0 3.073-.69 5.443-2.07 7.11-1.38 1.666-3.326 2.5-5.837 2.5-2.53 0-4.49-.839-5.875-2.516-1.385-1.677-2.078-4.042-2.078-7.094v-4.156c0-3.073.69-5.443 2.07-7.11 1.38-1.666 3.331-2.5 5.852-2.5 2.521 0 4.474.839 5.86 2.516 1.385 1.677 2.078 4.047 2.078 7.11v4.14zm-5.266-4.828c0-1.635-.213-2.857-.64-3.664C89.72 5.404 89.043 5 88.116 5c-.906 0-1.565.375-1.976 1.125-.412.75-.633 1.885-.664 3.406v5.813c0 1.698.213 2.94.64 3.726.427.787 1.104 1.18 2.031 1.18.896 0 1.558-.383 1.985-1.148.427-.766.646-1.967.656-3.602V9.875zm24.797 4.828c0 3.073-.69 5.443-2.07 7.11-1.38 1.666-3.326 2.5-5.836 2.5-2.532 0-4.49-.839-5.875-2.516-1.386-1.677-2.078-4.042-2.078-7.094v-4.156c0-3.073.69-5.443 2.07-7.11 1.38-1.666 3.33-2.5 5.851-2.5s4.474.839 5.86 2.516c1.385 1.677 2.078 4.047 2.078 7.11v4.14zm-5.266-4.828c0-1.635-.213-2.857-.64-3.664-.427-.807-1.104-1.211-2.032-1.211-.906 0-1.565.375-1.976 1.125-.412.75-.633 1.885-.664 3.406v5.813c0 1.698.213 2.94.64 3.726.428.787 1.105 1.18 2.032 1.18.896 0 1.557-.383 1.984-1.148.427-.766.646-1.967.656-3.602V9.875zM15.053 7.57L23 8.79l-5.75 5.89L18.607 23 11.5 19.07 4.393 23l1.357-8.32L0 8.791 7.947 7.57 11.5 0z"/>
    </g>
</svg>
