<svg xmlns="http://www.w3.org/2000/svg" width="127" height="21" viewBox="0 0 127 21">
    <path fill="#FFF" fill-rule="evenodd" d="M16.303 18.3c-.722.81-1.778 1.463-3.167 1.958-1.39.495-2.913.742-4.57.742-2.548 0-4.584-.787-6.107-2.362C.935 17.064.12 14.873.013 12.066L0 10.365c0-1.934.339-3.624 1.016-5.068.677-1.444 1.645-2.555 2.906-3.333C5.182 1.185 6.642.796 8.298.796c2.423 0 4.305.56 5.646 1.68 1.34 1.12 2.122 2.792 2.345 5.014h-4.516c-.16-1.097-.508-1.88-1.043-2.348-.534-.468-1.291-.702-2.271-.702-1.176 0-2.085.504-2.726 1.512-.642 1.008-.967 2.447-.976 4.319v1.187c0 1.962.332 3.435.996 4.42.663.985 1.708 1.478 3.133 1.478 1.22 0 2.13-.274 2.726-.823v-3.05h-3.26V10.23h7.95v8.07zm7.245 2.43h-4.516V6.127h4.516V20.73zM18.764 2.362c0-.648.232-1.179.695-1.593.463-.414 1.065-.62 1.804-.62.74 0 1.34.206 1.804.62.463.414.695.945.695 1.593s-.232 1.178-.695 1.592c-.463.414-1.064.621-1.804.621s-1.34-.207-1.804-.62c-.463-.415-.695-.945-.695-1.593zm12.802.135v3.63h2.378v3.158h-2.378v6.68c0 .55.098.932.294 1.148.196.216.583.324 1.162.324.446 0 .82-.027 1.123-.081v3.253c-.81.26-1.657.391-2.539.391-1.55 0-2.695-.369-3.434-1.107-.74-.737-1.11-1.858-1.11-3.36V9.285H25.22V6.127h1.844v-3.63h4.503zM48.14 17.059h-6.427L40.59 20.73h-5.01l7.135-19.65h4.41l7.189 19.65h-5.038l-1.136-3.67zm-5.305-3.657h4.183L44.92 6.586l-2.085 6.816zm24.554 1.336l1.456-8.61h4.317L69.754 20.73h-3.808l-2.392-8.664-2.406 8.664H57.34L53.933 6.127h4.316l1.43 8.813 2.298-8.813h3.14l2.272 8.61zm15.527 5.992c-.16-.297-.303-.733-.427-1.309C81.66 20.474 80.502 21 79.014 21c-1.363 0-2.52-.416-3.474-1.248-.953-.833-1.43-1.879-1.43-3.138 0-1.584.58-2.78 1.737-3.59 1.159-.81 2.842-1.215 5.052-1.215h1.39v-.77c0-1.34-.575-2.01-1.725-2.01-1.069 0-1.603.53-1.603 1.592h-4.503c0-1.412.594-2.56 1.784-3.441 1.189-.882 2.706-1.323 4.55-1.323 1.844 0 3.3.455 4.37 1.363 1.068.91 1.616 2.155 1.643 3.739v6.465c.018 1.34.223 2.366.615 3.077v.23h-4.504zm-2.82-2.97c.562 0 1.027-.12 1.397-.363.37-.243.635-.518.795-.824v-2.335h-1.31c-1.567 0-2.351.711-2.351 2.133 0 .414.138.749.414 1.005.276.257.628.385 1.056.385zm17.947-7.516l-1.483-.108c-1.417 0-2.325.45-2.726 1.35v9.244H89.33V6.127h4.223l.147 1.876c.757-1.43 1.813-2.146 3.167-2.146.481 0 .9.054 1.256.162l-.08 4.225zm1.056 3.077c0-2.313.494-4.135 1.483-5.466.989-1.332 2.37-1.998 4.142-1.998 1.292 0 2.379.513 3.26 1.539V0h4.517v20.73h-4.048l-.228-1.565C107.3 20.388 106.123 21 104.698 21c-1.72 0-3.083-.666-4.09-1.997-1.006-1.332-1.51-3.226-1.51-5.682zm4.503.283c0 2.591.748 3.887 2.245 3.887.998 0 1.71-.423 2.138-1.269v-5.56c-.41-.864-1.114-1.296-2.111-1.296-1.39 0-2.143 1.134-2.259 3.401l-.013.837zm19.028 3.023c0-.387-.2-.697-.6-.931-.402-.234-1.163-.477-2.286-.729-1.122-.252-2.049-.582-2.78-.992-.73-.41-1.287-.906-1.67-1.491-.383-.585-.574-1.255-.574-2.011 0-1.34.548-2.445 1.643-3.313 1.096-.869 2.53-1.303 4.303-1.303 1.906 0 3.439.437 4.597 1.31 1.158.872 1.737 2.02 1.737 3.441h-4.517c0-1.17-.61-1.755-1.83-1.755-.472 0-.869.133-1.19.399-.32.265-.48.596-.48.992 0 .404.195.733.587.985.392.252 1.018.459 1.878.62.86.163 1.614.356 2.265.58 2.173.757 3.26 2.11 3.26 4.063 0 1.332-.585 2.416-1.757 3.253-1.171.837-2.688 1.255-4.55 1.255-1.238 0-2.343-.225-3.314-.675-.97-.45-1.728-1.061-2.272-1.835-.543-.774-.815-1.588-.815-2.443h4.21c.017.675.24 1.167.668 1.478.427.31.975.465 1.643.465.615 0 1.076-.126 1.383-.378.308-.251.461-.58.461-.985z"/>
</svg>
