<svg xmlns="http://www.w3.org/2000/svg" width="77" height="33" viewBox="0 0 77 33">
    <g fill="none" fill-rule="evenodd">
        <path fill="#EE2B29" d="M0 32.28V0h8.075v11.453h8.605V0h8.013v32.28H16.68V19.244H8.075V32.28H0"/>
        <path fill="#FFF" d="M44.517 7.543V32.28h-8.075V7.543h-6.953V0h21.98v7.543h-6.952M53.518 32.87V12.093c0-3.625 1.086-6.547 3.26-8.766C58.95 1.11 61.819 0 65.383 0c3.275 0 6.019 1.087 8.234 3.26 2.21 2.172 3.317 4.845 3.317 8.018 0 3.383-1.192 6.105-3.567 8.165-2.38 2.06-5.546 3.09-9.5 3.09h-.84v-7.697h1.248c1.377 0 2.459-.328 3.245-.986.787-.657 1.183-1.552 1.183-2.685 0-.997-.331-1.824-.99-2.482-.659-.657-1.495-.986-2.51-.986-1.136 0-2.021.382-2.657 1.145-.636.763-.954 1.832-.954 3.207v20.82h-8.074"/>
    </g>
</svg>
