<svg xmlns="http://www.w3.org/2000/svg" xmlns:xlink="http://www.w3.org/1999/xlink" width="64" height="74" viewBox="0 0 64 74">
    <defs>
        <linearGradient id="b" x1="50%" x2="50%" y1="0%" y2="100%">
            <stop offset="0%" stop-color="#FD5D65"/>
            <stop offset="100%" stop-color="#CA7DF9"/>
        </linearGradient>
        <path id="a" d="M32 0l32 18.5v37L32 74 0 55.5v-37z"/>
    </defs>
    <g fill="none" fill-rule="evenodd">
        <mask id="c" fill="#fff">
            <use xlink:href="#a"/>
        </mask>
        <use fill="url(#b)" xlink:href="#a"/>
        <path fill="#FFE49A" fill-opacity=".948" d="M13-22L7 84 74-17z" mask="url(#c)" opacity=".15"/>
        <path fill="#5E2C96" d="M87 50L-26 63l71 32z" mask="url(#c)" opacity=".15" transform="matrix(-1 0 0 1 61 0)"/>
        <path fill="#2B1343" d="M16.143 47.523c2.573-.985 5.07-2.544 6.857-5.523-2.04 2.04-5.004 2.924-7.636 3.438C15.092 45.163 14.68 45 14 45c-2.917 0-7-3-6-7 6 .667 12-2.667 18-10l1-3c.318 16.19.318 24.523 0 25-2 3-5.917 2-9 0-1.164-.755-1.603-1.652-1.857-2.477z" mask="url(#c)"/>
        <rect width="17" height="30" x="27.5" y="22.5" stroke="#FFF" stroke-width="3" mask="url(#c)" rx="2"/>
        <path fill="#FFF" d="M16 21h12l-1 8z" mask="url(#c)"/>
        <circle cx="36" cy="47" r="2" fill="#FBF1F7" mask="url(#c)"/>
    </g>
</svg>
