<svg xmlns="http://www.w3.org/2000/svg" width="149" height="29" viewBox="0 0 149 29">
    <path fill="#FFF" fill-rule="evenodd" d="M38.813.203c2.127 0 3.808.691 5.044 2.074 1.236 1.382 1.854 3.215 1.854 5.497 0 .644-.027 1.14-.08 1.49-.212 1.718-.71 3.234-1.495 4.55-.784 1.315-1.794 2.329-3.03 3.04-1.236.712-2.599 1.067-4.087 1.067h-2.153c-.133 0-.226.081-.28.242l-1.156 9.625a.705.705 0 0 1-.219.443.607.607 0 0 1-.419.16h-6.14a.475.475 0 0 1-.379-.16c-.093-.108-.126-.256-.1-.443L29.444.807a.705.705 0 0 1 .22-.443.607.607 0 0 1 .418-.161h8.732zm-2.751 12.07c.585 0 1.083-.223 1.495-.669.412-.445.671-1.114.778-2.005.026-.162.04-.391.04-.688 0-.675-.147-1.188-.44-1.54-.291-.35-.69-.526-1.195-.526h-.519c-.16 0-.239.081-.239.243l-.598 4.941c-.026.162.04.243.2.243h.478zM48.02 28.391a.475.475 0 0 1-.379-.161c-.093-.108-.126-.256-.1-.443L50.811.807a.705.705 0 0 1 .22-.443.607.607 0 0 1 .418-.161h6.14c.16 0 .286.053.379.16.093.108.126.256.1.444l-3.27 26.98a.705.705 0 0 1-.22.444.607.607 0 0 1-.418.16h-6.14zM67.993 29c-2.313 0-4.14-.648-5.483-1.944-1.342-1.296-2.013-3.065-2.013-5.306 0-.27.026-.729.08-1.377l1.435-11.827c.319-2.62 1.342-4.698 3.07-6.237C66.81.769 68.949 0 71.502 0c2.312 0 4.146.641 5.502 1.924 1.355 1.282 2.033 3.044 2.033 5.285 0 .244-.027.689-.08 1.337l-.04.203a.803.803 0 0 1-.219.465.57.57 0 0 1-.419.183l-6.14.202c-.398 0-.571-.189-.518-.567l.12-1.012c.053-.46-.014-.824-.2-1.094-.186-.27-.452-.405-.797-.405-.372 0-.685.135-.937.405-.253.27-.406.635-.459 1.094l-1.555 13c-.053.433.007.784.18 1.054.172.27.445.405.817.405.372 0 .684-.128.937-.385.253-.256.405-.614.459-1.073l.12-1.094c.026-.189.099-.33.218-.425a.656.656 0 0 1 .42-.142l6.1.203c.186 0 .325.034.418.101.093.068.126.169.1.304l-.04.405c-.319 2.62-1.35 4.712-3.09 6.278C72.69 28.217 70.544 29 67.992 29zm13.712-.608c-.186 0-.325-.054-.418-.161-.093-.108-.127-.256-.1-.443L84.457.807a.705.705 0 0 1 .219-.443.607.607 0 0 1 .419-.161h6.06c.319 0 .532.147.638.443l2.033 5.114c.054.08.113.12.18.12.066 0 .113-.04.14-.12L97.454.646c.16-.296.398-.443.717-.443h6.061c.16 0 .286.053.379.16.093.108.126.256.1.444l-3.27 26.98a.705.705 0 0 1-.22.444.607.607 0 0 1-.418.16h-6.14a.475.475 0 0 1-.379-.16c-.093-.108-.126-.256-.1-.443l1.994-16.39c0-.134-.027-.208-.08-.222-.053-.013-.12.034-.2.141l-2.67 3.866-.48.725h-.039l-1.994-4.671c-.026-.108-.073-.155-.14-.141-.066.013-.112.087-.139.221l-1.993 16.47a.76.76 0 0 1-.2.444c-.106.107-.252.16-.438.16h-6.1zm36.32 0c-.372 0-.545-.188-.518-.564v-3.02c.026-.08.006-.141-.06-.182a.355.355 0 0 0-.18-.06h-3.389c-.133 0-.239.067-.319.201l-.837 3.06c-.08.377-.306.565-.678.565h-6.06c-.399 0-.545-.215-.439-.645l8.772-27.02c.106-.35.345-.524.718-.524h7.057c.372 0 .571.174.598.523l2.193 27.021c0 .457-.2.645-.598.645h-6.26zm-2.91-9.64c-.08.163-.014.244.198.244h1.715c.133 0 .213-.081.24-.243l-.04-6.886c0-.135-.034-.202-.1-.202-.067 0-.113.067-.14.202l-1.874 6.886zM7.713 10.373L5.6 27.788c-.026.187.007.335.1.443.093.107.22.16.38.16h14.326c.187 0 .34-.053.46-.16a.704.704 0 0 0 .219-.443l.638-5.276c.027-.188-.006-.335-.1-.443-.092-.107-.232-.16-.418-.16h-7.383c-.16 0-.227-.081-.2-.242l.479-3.907c0-.16.08-.241.24-.241h3.83c.373 0 .6-.202.679-.604l.639-5.276c.026-.188-.007-.335-.1-.443-.093-.107-.233-.16-.42-.16h-3.83c-.16 0-.227-.081-.2-.242l.479-3.866c0-.161.08-.242.24-.242h7.382c.187 0 .34-.053.46-.16a.704.704 0 0 0 .219-.444l.638-5.275c.027-.188-.006-.336-.1-.443-.092-.108-.232-.161-.418-.161H.393a.4.4 0 0 0-.312.65l7.633 9.519zm120.353 18.02c-.319 0-.478-.121-.478-.363l.08-.322 6.698-13.249c.027-.053.04-.16.04-.322L130.938.887a.452.452 0 0 1-.04-.201c0-.322.2-.483.598-.483h6.18a.58.58 0 0 1 .4.14.628.628 0 0 1 .198.383l.878 5.517c.026.108.073.161.14.161.066 0 .112-.053.139-.16l2.233-5.518c.132-.349.372-.523.717-.523h6.14c.32 0 .479.12.479.362l-.08.322-6.698 13.25c-.027.053-.04.16-.04.321l3.469 13.249c.026.054.04.12.04.201 0 .323-.2.484-.598.484h-6.1a.58.58 0 0 1-.4-.141.628.628 0 0 1-.199-.383l-.917-5.477c-.027-.107-.073-.16-.14-.16-.066 0-.126.053-.179.16l-2.233 5.477c-.133.35-.372.524-.717.524h-6.14z" opacity=".5"/>
</svg>
