<svg xmlns="http://www.w3.org/2000/svg" width="227" height="421" viewBox="0 0 227 421">
    <defs>
        <filter id="a" width="152.6%" height="152.5%" x="-26.3%" y="-26.3%" filterUnits="objectBoundingBox">
            <feGaussianBlur in="SourceGraphic" stdDeviation="18.75"/>
        </filter>
        <linearGradient id="b" x1="50%" x2="50%" y1="0%" y2="100%">
            <stop offset="0%" stop-color="#81B3F2"/>
            <stop offset="17.064%" stop-color="#D25DF8"/>
            <stop offset="100%" stop-color="#FF5D60"/>
        </linearGradient>
        <linearGradient id="c" x1="13.69%" x2="60.592%" y1="1.339%" y2="101.66%">
            <stop offset="0%" stop-color="#91BDF5"/>
            <stop offset="100%" stop-color="#A2FCDE" stop-opacity=".2"/>
        </linearGradient>
        <linearGradient id="d" x1="50%" x2="50%" y1="0%" y2="100%">
            <stop offset="0%" stop-color="#9372DD"/>
            <stop offset="11.061%" stop-color="#A644C6"/>
            <stop offset="100%" stop-color="#B82F64"/>
        </linearGradient>
        <linearGradient id="e" x1="50%" x2="50%" y1="0%" y2="100%">
            <stop offset="0%" stop-color="#9372DD"/>
            <stop offset="11.061%" stop-color="#A644C6"/>
            <stop offset="100%" stop-color="#812FB8"/>
        </linearGradient>
        <linearGradient id="f" x1="13.064%" x2="60.592%" y1="0%" y2="101.66%">
            <stop offset="0%" stop-color="#91BDF5"/>
            <stop offset="100%" stop-color="#A2FCDE" stop-opacity=".1"/>
        </linearGradient>
        <linearGradient id="g" x1="50%" x2="50%" y1="0%" y2="100%">
            <stop offset="0%" stop-color="#B497F5"/>
            <stop offset="11.061%" stop-color="#D36EF4"/>
            <stop offset="100%" stop-color="#692BA8"/>
        </linearGradient>
        <linearGradient id="h" x1="13.064%" x2="60.592%" y1="0%" y2="101.66%">
            <stop offset="0%" stop-color="#91BDF5" stop-opacity=".7"/>
            <stop offset="100%" stop-color="#A2FCDE" stop-opacity=".1"/>
        </linearGradient>
        <linearGradient id="i" x1="13.064%" x2="60.592%" y1="0%" y2="101.66%">
            <stop offset="0%" stop-color="#91BDF5"/>
            <stop offset="49.787%" stop-color="#BA43A0"/>
            <stop offset="100%" stop-color="#BB2462"/>
        </linearGradient>
        <linearGradient id="j" x1="13.064%" x2="60.592%" y1="0%" y2="101.66%">
            <stop offset="0%" stop-color="#62EEFF"/>
            <stop offset="100%" stop-color="#A2FCDE" stop-opacity=".2"/>
        </linearGradient>
        <filter id="k" width="109.6%" height="210.6%" x="-4.8%" y="-55.3%" filterUnits="objectBoundingBox">
            <feGaussianBlur in="SourceGraphic" stdDeviation="3.047"/>
        </filter>
        <filter id="l" width="110.7%" height="193.9%" x="-5.4%" y="-46.9%" filterUnits="objectBoundingBox">
            <feGaussianBlur in="SourceGraphic" stdDeviation="1.823"/>
        </filter>
        <filter id="m" width="104.9%" height="135.8%" x="-2.5%" y="-17.9%" filterUnits="objectBoundingBox">
            <feGaussianBlur in="SourceGraphic" stdDeviation=".336"/>
        </filter>
        <filter id="n" width="111.7%" height="153.6%" x="-5.8%" y="-26.8%" filterUnits="objectBoundingBox">
            <feGaussianBlur in="SourceGraphic" stdDeviation=".336"/>
        </filter>
    </defs>
    <g fill="none" fill-rule="evenodd" transform="translate(-30 -27)">
        <ellipse cx="239.875" cy="295.244" fill="#69EAFF" filter="url(#a)" opacity=".288" rx="106.875" ry="107.1"/>
        <path fill="url(#b)" d="M201.375 197.863V14.665c-23.3 0-42.188 18.939-42.188 42.301v95.32H74.813V42.302C74.813 18.939 55.925 0 32.626 0v262.27l50.063 51.89h76.11c5.7-55.868 42.577-33.492 42.577-116.297z" transform="rotate(-23 229.263 44.454)"/>
        <path fill="url(#b)" d="M201.375 197.863V14.665c-23.3 0-42.188 18.939-42.188 42.301v95.32H74.813V42.302C74.813 18.939 55.925 0 32.626 0v262.27l50.063 51.89h76.11c5.7-55.868 42.577-33.492 42.577-116.297z" transform="rotate(-23 229.263 44.454)"/>
        <path fill="url(#b)" d="M201.375 14.665c-23.3 0-42.188 18.939-42.188 42.301v95.32H74.813V42.302C74.813 18.939 55.925 0 32.626 0v262.27l50.063 51.89h76.11c5.7-55.868 42.577-33.492 42.577-116.297V14.665z" transform="rotate(-23 229.263 44.454)"/>
        <path fill="url(#c)" d="M37.125 247.576l.563-241.94c24.75 5.574 37.124 18.921 37.124 40.042V212.61l89.438-42.86V55.264c0-19.725 15.75-41.733 37.125-40.04-.342-.028-.342 63.7 0 191.182L83.508 289.359l-46.383-41.783z" opacity=".401" style="mix-blend-mode:overlay" transform="rotate(-23 229.263 44.454)"/>
        <path fill="url(#d)" d="M117.188 114.626h42.187v68.465c0 23.423-18.837 42.446-42.188 42.747v5.649C93.888 231.487 75 212.599 75 189.299v-81.447h42.188v6.774z" opacity=".3" style="mix-blend-mode:multiply" transform="rotate(-23 229.263 44.454)"/>
        <path fill="url(#e)" d="M75 102.59h42.375v123.636C93.972 226.226 75 207.254 75 183.85v-81.26z" transform="rotate(-23 229.263 44.454)"/>
        <path fill="url(#f)" d="M79.875 102.59H117v121.757c-21.19-2.574-37.125-20.561-37.125-41.907v-79.85z" opacity=".884" style="mix-blend-mode:overlay" transform="rotate(-23 229.263 44.454)"/>
        <path fill="url(#g)" d="M117 109.355h42.375v68.859c0 23.403-18.972 42.375-42.375 42.375V109.355z" transform="rotate(-23 229.263 44.454)"/>
        <path fill="url(#h)" d="M121.5 109.355h37.875v65.843c0 20.918-16.957 37.875-37.875 37.875V109.355z" opacity=".603" style="mix-blend-mode:overlay" transform="rotate(-23 229.263 44.454)"/>
        <path fill="url(#i)" d="M52.512 145.43c20.124 0 36.437 16.314 36.437 36.438 0 1.776-.13 3.55-.389 5.308l-7.697 52.275c53.516-4.835 93.187 7.03 119.012 35.596-.54 0-57.35 41.726-60.991 44.375 0 0-70.26-9.615-70.851-10.43l-32.408-44.669 16.887-118.892z" transform="rotate(13 33.27 607.96)"/>
        <path fill="url(#i)" d="M82.864 124.018c20.107 0 36.408 16.3 36.408 36.408 0 1.77-.129 3.537-.386 5.288l-7.707 52.508-45.181 24.922 16.866-119.126z" opacity=".44" style="mix-blend-mode:multiply" transform="rotate(13 -60.495 490.968)"/>
        <path fill="url(#i)" d="M52.512 145.43c20.124 0 36.437 16.314 36.437 36.438 0 1.776-.13 3.55-.389 5.308l-7.697 52.275c53.516-4.835 93.187 7.03 119.012 35.596-.54 0-57.35 41.726-60.991 44.375 0 0-70.26-9.615-70.851-10.43l-32.408-44.669 16.887-118.892z" transform="rotate(13 33.27 607.96)"/>
        <path fill="url(#j)" d="M58.094 148.061c19.057 2.248 32.683 19.519 30.435 38.575-.038.32-.08.641-.127.961l-7.796 53.264c54.978-3.978 94.484 8.011 118.519 35.97-.54 0-56.876 41.442-60.517 44.094 0 0-70.236-9.626-70.828-10.443-2.424-3.346-11.142-16.98-26.155-40.901l16.47-121.52z" opacity=".57" style="mix-blend-mode:overlay" transform="rotate(13 41.416 612.06)"/>
        <g fill="#67094D" opacity=".778" transform="translate(95.875 354.619)">
            <ellipse cx="94.875" cy="8.267" filter="url(#k)" opacity=".13" rx="94.875" ry="8.267"/>
            <ellipse cx="108.75" cy="8.455" filter="url(#l)" opacity=".2" rx="51" ry="5.825"/>
            <ellipse cx="108.938" cy="7.328" filter="url(#m)" opacity=".1" rx="20.438" ry="2.818"/>
            <ellipse cx="107.625" cy="5.637" filter="url(#n)" opacity=".1" rx="8.625" ry="1.879"/>
        </g>
    </g>
</svg>
