<svg xmlns="http://www.w3.org/2000/svg" xmlns:xlink="http://www.w3.org/1999/xlink" width="64" height="74" viewBox="0 0 64 74">
    <defs>
        <linearGradient id="b" x1="50%" x2="50%" y1="0%" y2="100%">
            <stop offset="0%" stop-color="#FD5D65"/>
            <stop offset="100%" stop-color="#CA7DF9"/>
        </linearGradient>
        <path id="a" d="M32 0l32 18.5v37L32 74 0 55.5v-37z"/>
    </defs>
    <g fill="none" fill-rule="evenodd">
        <mask id="c" fill="#fff">
            <use xlink:href="#a"/>
        </mask>
        <use fill="url(#b)" xlink:href="#a"/>
        <path fill="#FFE49A" fill-opacity=".948" d="M29 74L-2 6l67 26z" mask="url(#c)" opacity=".15"/>
        <path fill="#5E2C96" d="M11 68l62-7L1 34z" mask="url(#c)" opacity=".15" transform="matrix(-1 0 0 1 74 0)"/>
        <path fill="#FFF" d="M31 26h3v16h-3z" mask="url(#c)"/>
        <path fill="#FFF" fill-rule="nonzero" d="M46 43v-5a3 3 0 0 0-3-3H22a3 3 0 0 0-3 3v5h-3v-5a6 6 0 0 1 6-6h21a6 6 0 0 1 6 6v5h-3zm3 0h-3v-5a3 3 0 0 0-3-3H22a3 3 0 0 0-3 3v5h-3v-5a6 6 0 0 1 6-6h21a6 6 0 0 1 6 6v5z" mask="url(#c)"/>
        <circle cx="32.5" cy="20.5" r="4" stroke="#2B1343" stroke-width="3" mask="url(#c)"/>
        <circle cx="32.5" cy="47.5" r="4" stroke="#2B1343" stroke-width="3" mask="url(#c)"/>
        <circle cx="47.5" cy="47.5" r="4" stroke="#2B1343" stroke-width="3" mask="url(#c)"/>
        <circle cx="17.5" cy="47.5" r="4" stroke="#2B1343" stroke-width="3" mask="url(#c)"/>
    </g>
</svg>
